Manager 1 with PID: 12309 Parent PID: 12308 processing:
		Chapter: 1 HW: 1
		Total Grade = 870.00 Average Grade = 87.00

Manager 1 with PID: 12309 Parent PID: 12308 processing:
		Chapter: 1 HW: 2
		Total Grade = 685.00 Average Grade = 68.50

Manager 1 with PID: 12309 Parent PID: 12308 processing:
	Director with PID: 12308, has processed manager 1 with PID: 12309


Manager 2 with PID: 12317 Parent PID: 12308 processing:
		Chapter: 2 HW: 1
		Total Grade = 894.00 Average Grade = 89.40

	Director with PID: 12308, has processed manager 1 with PID: 12309


Manager 2 with PID: 12317 Parent PID: 12308 processing:
		Chapter: 2 HW: 2
		Total Grade = 910.00 Average Grade = 91.00

	Director with PID: 12308, has processed manager 1 with PID: 12309


Manager 2 with PID: 12317 Parent PID: 12308 processing:
	Director with PID: 12308, has processed manager 1 with PID: 12309


	Director with PID: 12308, has processed manager 2 with PID: 12317


Manager 3 with PID: 12325 Parent PID: 12308 processing:
		Chapter: 3 HW: 1
		Total Grade = 878.00 Average Grade = 87.80

	Director with PID: 12308, has processed manager 1 with PID: 12309


	Director with PID: 12308, has processed manager 2 with PID: 12317


Manager 3 with PID: 12325 Parent PID: 12308 processing:
		Chapter: 3 HW: 2
		Total Grade = 870.00 Average Grade = 87.00

	Director with PID: 12308, has processed manager 1 with PID: 12309


	Director with PID: 12308, has processed manager 2 with PID: 12317


Manager 3 with PID: 12325 Parent PID: 12308 processing:
	Director with PID: 12308, has processed manager 1 with PID: 12309


	Director with PID: 12308, has processed manager 2 with PID: 12317


	Director with PID: 12308, has processed manager 3 with PID: 12325


Manager 4 with PID: 12333 Parent PID: 12308 processing:
		Chapter: 4 HW: 1
		Total Grade = 664.00 Average Grade = 66.40

	Director with PID: 12308, has processed manager 1 with PID: 12309


	Director with PID: 12308, has processed manager 2 with PID: 12317


	Director with PID: 12308, has processed manager 3 with PID: 12325


Manager 4 with PID: 12333 Parent PID: 12308 processing:
		Chapter: 4 HW: 2
		Total Grade = 803.00 Average Grade = 80.30

	Director with PID: 12308, has processed manager 1 with PID: 12309


	Director with PID: 12308, has processed manager 2 with PID: 12317


	Director with PID: 12308, has processed manager 3 with PID: 12325


Manager 4 with PID: 12333 Parent PID: 12308 processing:
	Director with PID: 12308, has processed manager 1 with PID: 12309


	Director with PID: 12308, has processed manager 2 with PID: 12317


	Director with PID: 12308, has processed manager 3 with PID: 12325


	Director with PID: 12308, has processed manager 4 with PID: 12333


Manager 5 with PID: 12341 Parent PID: 12308 processing:
		Chapter: 5 HW: 1
		Total Grade = 822.00 Average Grade = 82.20

	Director with PID: 12308, has processed manager 1 with PID: 12309


	Director with PID: 12308, has processed manager 2 with PID: 12317


	Director with PID: 12308, has processed manager 3 with PID: 12325


	Director with PID: 12308, has processed manager 4 with PID: 12333


Manager 5 with PID: 12341 Parent PID: 12308 processing:
		Chapter: 5 HW: 2
		Total Grade = 787.00 Average Grade = 78.70

	Director with PID: 12308, has processed manager 1 with PID: 12309


	Director with PID: 12308, has processed manager 2 with PID: 12317


	Director with PID: 12308, has processed manager 3 with PID: 12325


	Director with PID: 12308, has processed manager 4 with PID: 12333


Manager 5 with PID: 12341 Parent PID: 12308 processing:
	Director with PID: 12308, has processed manager 1 with PID: 12309


	Director with PID: 12308, has processed manager 2 with PID: 12317


	Director with PID: 12308, has processed manager 3 with PID: 12325


	Director with PID: 12308, has processed manager 4 with PID: 12333


	Director with PID: 12308, has processed manager 5 with PID: 12341


**** Director with PID: 12308 processed all the managers ****
